\relax 
\providecommand\hyper@newdestlabel[2]{}
\providecommand\HyperFirstAtBeginDocument{\AtBeginDocument}
\HyperFirstAtBeginDocument{\ifx\hyper@anchor\@undefined
\global\let\oldcontentsline\contentsline
\gdef\contentsline#1#2#3#4{\oldcontentsline{#1}{#2}{#3}}
\global\let\oldnewlabel\newlabel
\gdef\newlabel#1#2{\newlabelxx{#1}#2}
\gdef\newlabelxx#1#2#3#4#5#6{\oldnewlabel{#1}{{#2}{#3}}}
\AtEndDocument{\ifx\hyper@anchor\@undefined
\let\contentsline\oldcontentsline
\let\newlabel\oldnewlabel
\fi}
\fi}
\global\let\hyper@last\relax 
\gdef\HyperFirstAtBeginDocument#1{#1}
\providecommand\HyField@AuxAddToFields[1]{}
\providecommand\HyField@AuxAddToCoFields[2]{}
\@LN@col{1}
\providecommand \oddpage@label [2]{}
\@writefile{toc}{\contentsline {section}{\numberline {1}\hskip -1em.\nobreakspace  {}Introduzione all'attacco}{1}{section.1}\protected@file@percent }
\@writefile{toc}{\contentsline {section}{\numberline {2}\hskip -1em.\nobreakspace  {}Password e cifratura}{1}{section.2}\protected@file@percent }
\@LN@col{2}
\@writefile{toc}{\contentsline {section}{\numberline {3}\hskip -1em.\nobreakspace  {}Specifiche tecniche}{1}{section.3}\protected@file@percent }
\@writefile{toc}{\contentsline {section}{\numberline {4}\hskip -1em.\nobreakspace  {}Strumenti usati durante lo sviluppo del programma}{1}{section.4}\protected@file@percent }
\@writefile{toc}{\contentsline {section}{\numberline {5}\hskip -1em.\nobreakspace  {}Come compilare il progetto}{1}{section.5}\protected@file@percent }
\@LN@col{1}
\@writefile{toc}{\contentsline {section}{\numberline {6}\hskip -1em.\nobreakspace  {}Spiegazione del progetto}{2}{section.6}\protected@file@percent }
\@writefile{toc}{\contentsline {subsection}{\numberline {6.1}\hskip -1em.\nobreakspace  {}Password possibili}{2}{subsection.6.1}\protected@file@percent }
\@writefile{toc}{\contentsline {subsection}{\numberline {6.2}\hskip -1em.\nobreakspace  {}Parallelismo}{2}{subsection.6.2}\protected@file@percent }
\@LN@col{2}
\@writefile{toc}{\contentsline {subsection}{\numberline {6.3}\hskip -1em.\nobreakspace  {}Terminazione della ricerca}{2}{subsection.6.3}\protected@file@percent }
\@writefile{toc}{\contentsline {subsection}{\numberline {6.4}\hskip -1em.\nobreakspace  {}Eseguibili e compilazione}{2}{subsection.6.4}\protected@file@percent }
\newlabel{subsec:exec}{{6.4}{2}{\hskip -1em.~Eseguibili e compilazione}{subsection.6.4}{}}
\newlabel{subsec:exec@cref}{{[subsection][4][6]6.4}{[1][2][]2}}
\@writefile{toc}{\contentsline {section}{\numberline {7}\hskip -1em.\nobreakspace  {}Presentazione dei risultati e commento}{2}{section.7}\protected@file@percent }
\gdef\minted@oldcachelist{,
  default-pyg-prefix.pygstyle,
  default.pygstyle,
  F5ECBE82F586FE9CEFE7C330AC896662EAD440A79C3E84ACDCEF803F7E227B29.pygtex}
\@LN@col{1}
\@LN@col{2}
\@writefile{toc}{\contentsline {section}{\numberline {8}\hskip -1em.\nobreakspace  {}Appendice}{3}{section.8}\protected@file@percent }
\@writefile{toc}{\contentsline {subsection}{\numberline {8.1}\hskip -1em.\nobreakspace  {}Tabella tempi per thread}{3}{subsection.8.1}\protected@file@percent }
