5.16666
0.131034
3.40376
2.31998
0.955335
2.25555
0.929831
4.09349
6.05694
2.8627
3.31844
2.43654
5.49817
2.7753
0.623127
1.94006
0.856266
0.799013
1.48987
4.6139
0.582483
2.39803
1.69927
3.0087
6.25718
0.337467
3.92442
3.07289
0.69339
1.00647
2.10507
5.66762
0.591138
2.20965
0.087442
5.7222
5.46629
4.82491
4.69956
6.28753
4.79805
1.71868
3.14994
5.87798
3.64629
3.91041
3.17156
5.46662
5.92107
2.47557
4.08906
3.58873
2.54845
5.16291
5.61058
3.02708
5.90111
6.00464
1.83075
3.59602
4.50883
2.45491
1.65814
3.42702
2.60053
2.82401
4.64405
2.44539
4.78991
1.22726
4.35011
3.71826
6.2456
0.55613
5.60649
0.749413
6.3327
4.50549
2.97669
1.81599
1.12313
5.78292
5.27826
3.31577
4.68819
3.94039
1.14883
0.842412
3.42319
2.62166
1.34557
5.84455
4.12913
6.11039
1.13943
2.55462
1.74695
3.1137
0.996364
2.85215
