39748
548
25750
16695
7574
18127
5166
31014
48896
20508
26609
17776
42384
20597
3544
15528
5577
4550
11822
36275
3324
19149
13745
23989
49627
1985
29511
24580
5571
8073
15191
42882
3350
15571
672
44589
44208
36862
36197
49199
36632
11888
23283
45066
29135
30184
23623
41306
46120
19996
30942
26400
18582
38723
43237
22134
47859
48221
12992
29094
34411
17902
10769
26362
19126
20764
35024
19613
37461
8036
33328
28761
48229
3107
44488
4795
47909
34149
22134
13335
7858
44335
40668
26358
36885
31160
7396
5060
25190
19311
10819
45545
33403
47584
7799
19686
12704
23283
5519
20321
