8.65079
12.1574
8.27687
4.20636
11.3372
8.03575
9.0933
4.49127
12.1215
3.43357
8.54848
2.27941
10.1178
1.77157
10.3779
10.8217
9.33983
10.6372
3.66245
3.20458
12.5109
12.3633
8.0201
7.6948
10.2978
1.79137
11.77
10.1136
4.83688
10.9107
2.70956
5.24965
8.77788
1.81476
10.9419
5.86434
6.30817
5.69003
5.26286
0.23577
9.78719
0.960967
11.7767
1.75925
0.179075
1.82095
11.5428
0.086307
11.3607
6.20873
3.32735
10.7946
0.037685
8.49589
2.24814
11.271
7.72493
10.363
9.50873
8.70992
5.06453
6.17294
0.245582
1.03662
10.3346
3.72475
5.54843
4.45457
7.78772
7.42521
4.19521
7.4097
2.58164
5.34528
1.31864
6.78198
4.66326
10.6023
0.164933
11.5311
2.59281
5.15567
4.61294
11.7996
10.2434
9.52706
0.98412
10.9252
8.50485
7.71277
10.6474
6.66187
3.94196
7.19569
11.4724
0.622124
5.03866
12.3361
5.21505
8.8859
