0.740491
0.215615
0.309874
0.296621
1.80174
1.44493
0.00481
0.630171
1.20354
0.293719
0.89986
0.3684
1.42797
1.7716
0.991499
0.033968
1.78318
1.40494
0.534028
0.768055
1.66902
1.0037
1.43607
1.19438
1.56297
0.4314
1.60478
0.878725
1.25274
0.919616
1.60579
0.298196
1.69174
0.393996
0.455505
0.989972
0.620957
0.831698
1.28531
0.073353
1.67273
1.58414
1.25375
1.10728
1.66748
1.06848
1.66104
0.053141
1.16676
1.71986
1.32795
0.576625
2.12176
1.41178
0.196233
1.11389
0.290189
1.90275
0.707697
1.85618
0.606741
1.08707
0.170034
1.17156
0.645541
0.331775
1.65771
1.54728
0.352407
1.29968
1.78915
1.88689
0.396191
0.564434
0.793235
1.43692
1.21546
0.200366
1.11685
0.192402
0.882008
1.85548
0.61512
1.72302
1.81757
1.30357
1.7899
2.04201
0.47988
1.89023
2.23495
1.66266
0.531131
1.3835
1.90889
0.594596
0.297355
1.6222
0.737543
0.070092
