1.90931
2.9216
0.349782
1.77659
0.132191
2.56241
1.23732
3.41611
1.53029
3.03757
1.96093
1.52523
3.37024
1.74001
1.42675
0.211449
0.734137
2.58476
0.735907
1.70432
2.19921
1.30606
0.513173
2.15302
3.73856
0.672865
0.813755
1.57882
1.20553
2.03345
3.08533
3.73558
0.472266
2.32647
1.10102
2.14353
1.89258
1.26248
2.03536
0.451771
1.09568
1.14739
1.77344
0.65753
0.052785
1.18939
2.99189
0.776601
3.24697
1.3987
0.165902
2.67862
0.259641
3.22313
0.118504
0.77312
2.69954
1.59397
2.4659
1.16244
2.53443
1.82134
0.397503
1.78588
2.53846
2.2012
3.28777
0.229276
0.95399
1.3542
2.26417
0.405063
0.627176
3.26234
0.830673
3.39585
0.913436
1.0114
1.12317
2.44935
0.858185
3.17124
1.46178
1.74043
0.434817
0.694086
1.16089
1.57963
3.20716
1.59899
0.535017
1.68494
0.347527
1.23982
2.91725
2.05713
1.83712
2.71153
2.51924
1.14581
0.000306
0.004956
0.000244
0.000223
0.000227
0.000304
0.000543
0.002633
0.003681
0.000153
0.000283
0.000125
0.000107
9.4e-05
8.9e-05
0.000297
0.011435
0.007697
0.00684
0.000772
0.000229
0.000135
0.000136
0.000109
0.006276
4.59533
4.99026
3.79229
3.98045
3.57186
0.926315
5.66227
4.21714
4.9699
1.72097
2.9237
6.20847
2.22391
2.41522
0.563006
25.8718
2.78243
3.60127
1.59537
2.4074
