1.43903
1.02391
1.01192
0.163323
2.43836
1.75669
1.48091
2.31349
0.836987
0.579826
0.274059
0.354954
2.30202
0.590336
2.01772
1.44385
0.457077
0.010929
0.565355
0.545541
2.14112
1.50054
1.18174
0.991522
0.52368
2.13408
2.2739
1.67706
0.927887
0.969704
1.71972
2.20299
2.70672
0.659138
3.00952
0.610654
1.55803
1.30346
0.880352
0.13466
2.68067
0.01993
0.905755
1.86807
1.76465
2.61558
1.622
2.4525
2.30895
2.49856
0.650532
1.28078
1.65351
3.08127
1.48577
1.97091
1.70776
1.98351
0.191456
1.49644
0.507491
0.973161
2.74365
2.07763
1.14032
2.60416
1.65981
2.46763
2.38965
2.09158
2.19324
1.02777
1.04632
1.35362
2.96581
1.13681
1.91935
0.912134
2.12122
0.385175
1.84971
3.2795
0.189884
0.319004
2.05599
1.06937
0.174749
1.17711
2.2062
1.65968
2.06348
1.27044
0.903572
2.82199
0.500989
2.37422
1.53269
1.54141
2.9366
0.228361
